…
|  Nanchang| Lung |     |
|---------:|------|-----|
|   Smoking| Yes  | No  |
|       Yes| 104  | 89  |
|        No| 21   | 36  |

``` r
lung_tidy <- flatten_ct(lung_cancer)
lung_tidy
#> # A tibble: 8,419 x 3
#>    Smoking   Lung    City
#>     <fctr> <fctr>  <fctr>
#>  1       Y      Y Beijing
#>  2       Y      Y Beijing
#>  3       Y      Y Beijing
#>  4       Y      Y Beijing
#>  5       Y      Y Beijing
#>  6       Y      Y Beijing
#>  7       Y      Y Beijing
#>  8       Y      Y Beijing
#>  9       Y      Y Beijing
#> 10       Y      Y Beijing
#> # ... with 8,409 more rows
…
