…
> cleanEx()
> nameEx("flatten_ct")
> ### * flatten_ct
> 
> flush(stderr()); flush(stdout())
> 
> base::assign(".ptime", proc.time(), pos = "CheckExEnv")
> ### Name: flatten_ct
> ### Title: Flatten i*j*k contingency tables into tidy data.
> ### Aliases: flatten_ct
> 
> ### ** Examples
> 
> flatten_ct(lung_cancer)
# A tibble: 8,419 x 3
   Smoking   Lung    City
    <fctr> <fctr>  <fctr>
 1       Y      Y Beijing
 2       Y      Y Beijing
 3       Y      Y Beijing
 4       Y      Y Beijing
 5       Y      Y Beijing
 6       Y      Y Beijing
 7       Y      Y Beijing
 8       Y      Y Beijing
 9       Y      Y Beijing
10       Y      Y Beijing
# ... with 8,409 more rows
…
